…
```r
> df <- activity_data %>%
+         # remove NA's first then
+         drop_na(steps) %>%
+         # aggregate by date
+         group_by(date) %>%
+         # calculate the sum of steps per group
+         summarise(steps_per_day = sum(steps))
> df 
```

```
# A tibble: 53 x 2
   date       steps_per_day
   <date>             <dbl>
 1 2012-10-02           126
 2 2012-10-03         11352
 3 2012-10-04         12116
 4 2012-10-05         13294
 5 2012-10-06         15420
 6 2012-10-07         11015
 7 2012-10-09         12811
 8 2012-10-10          9900
 9 2012-10-11         10304
10 2012-10-12         17382
# ... with 43 more rows
```
…
```r
> df <- activity_data %>%
+         # remove NA's first then
+         drop_na() %>%
+         # aggregate by interval
+         group_by(interval) %>%
+         # compute for the mean step per interval
+         summarize(average_steps = mean(steps))
> df
```

```
# A tibble: 288 x 2
   interval average_steps
      <dbl>         <dbl>
 1        0        1.72  
 2        5        0.340 
 3       10        0.132 
 4       15        0.151 
 5       20        0.0755
 6       25        2.09  
 7       30        0.528 
 8       35        0.868 
 9       40        0     
10       45        1.47  
# ... with 278 more rows
```
…
$interval
[1] 0
```

Indeed, only the **`steps`** column contains **2304** missing data. There's a lot of methods for imputing missing values. But for the purpose of this assignment, we'll make it simple and impute these by using the mean of the interval they belong to.

Recall that we can get these values from the table above.


```r
> df
```

```
# A tibble: 288 x 2
   interval average_steps
      <dbl>         <dbl>
 1        0        1.72  
 2        5        0.340 
 3       10        0.132 
 4       15        0.151 
 5       20        0.0755
 6       25        2.09  
 7       30        0.528 
 8       35        0.868 
 9       40        0     
10       45        1.47  
# ... with 278 more rows
```

We'll just have to round the average steps on each interval to whole numbers.


```r
> df <- df %>%
+         mutate(average_steps = round(average_steps))
> df
```

```
# A tibble: 288 x 2
   interval average_steps
      <dbl>         <dbl>
 1        0             2
 2        5             0
 3       10             0
 4       15             0
 5       20             0
 6       25             2
 7       30             1
 8       35             1
 9       40             0
10       45             1
# ... with 278 more rows
```

Now, to fill the `NA`'s we'll have to merge this **`df`** dataframe with our original table, **`activity_data`**.


```r
> df_nona <- activity_data %>%
+         # merge two table by the interval column 
+         left_join(df, by = c("interval" = "interval"))
> df_nona
```

```
# A tibble: 17,568 x 4
   steps date       interval average_steps
   <dbl> <date>        <dbl>         <dbl>
 1    NA 2012-10-01        0             2
 2    NA 2012-10-01        5             0
 3    NA 2012-10-01       10             0
 4    NA 2012-10-01       15             0
 5    NA 2012-10-01       20             0
 6    NA 2012-10-01       25             2
 7    NA 2012-10-01       30             1
 8    NA 2012-10-01       35             1
 9    NA 2012-10-01       40             0
10    NA 2012-10-01       45             1
# ... with 17,558 more rows
```

We can see now the column **`average_steps`** from **`df`** table. We'll alter the **`steps`** column using this column.


```r
> df_nona <- df_nona %>%
+         # if steps is NA, fill value from average_steps, otherwise do nothing
+         mutate(steps = ifelse(is.na(steps), average_steps, steps)) %>%
+         # selecting all columns except average_steps
+         select(-4)
> df_nona
```

```
# A tibble: 17,568 x 3
   steps date       interval
   <dbl> <date>        <dbl>
 1     2 2012-10-01        0
 2     0 2012-10-01        5
 3     0 2012-10-01       10
 4     0 2012-10-01       15
 5     0 2012-10-01       20
 6     2 2012-10-01       25
 7     1 2012-10-01       30
 8     1 2012-10-01       35
 9     0 2012-10-01       40
10     1 2012-10-01       45
# ... with 17,558 more rows
```
…
To answer this question, we'll first create a new variable/column which indicates if a given observation is a `"weekday"` or a `"weekend"`. We'll use **`wday()`** function from the **`lubridate`** package which gives the numeric value for
a given day of the week and **`ifelse`** function to check if a given observation is within a certain range. If it is within `1:5` with `1` representing `Monday`, then the function outputs `"weekday"`, `"weekend"` otherwise.


```r
> df_nona_wday <- df_nona %>%
+         mutate(day_of_the_week =
+           ifelse(wday(date, week_start = 1) %in% 1:5,"weekday","weekend")) %>%
+         group_by(interval, day_of_the_week) %>%
+         summarize(average_steps = mean(steps))
> df_nona_wday
```

```
# A tibble: 576 x 3
# Groups:   interval [288]
   interval day_of_the_week average_steps
      <dbl> <chr>                   <dbl>
 1        0 weekday                2.29  
 2        0 weekend                0.25  
 3        5 weekday                0.4   
 4        5 weekend                0     
 5       10 weekday                0.156 
 6       10 weekend                0     
 7       15 weekday                0.178 
 8       15 weekend                0     
 9       20 weekday                0.0889
10       20 weekend                0     
# ... with 566 more rows
```
…
